// Jest Snapshot v1, https://goo.gl/fbAQLP

exports[`getUser.js testing user id=1 data 1`] = `
Object {
  "city": "bad value - pls update snapshot",
  "company": "Bosco and Sons",
  "email": "Torey30@hotmail.com",
  "id": 1,
  "name": "Hayden Zieme",
}
`;

exports[`getUser.js testing user id=42 data 1`] = `
Object {
  "city": "South Carliton",
  "company": "Koelpin Group",
  "email": "Christelle_Reynolds59@hotmail.com",
  "id": 42,
  "name": "Garnett Schinner",
}
`;
